jun 09, 2019 1:52:29 PM com.commander.server.controller.MainFormController Logger
INFORMACIÓN: [SERVER OUTPUT FILE] Escuchando TCP en puerto:13085
jun 09, 2019 2:06:35 PM com.commander.server.controller.MainFormController Logger
GRAVE: [SERVER MAIN] Escuchando TCP en puerto:55555
jun 09, 2019 2:07:50 PM com.commander.server.controller.MainFormController Logger
INFORMACIÓN: [SERVER OUTPUT FILE] Escuchando TCP en puerto:13085
jun 09, 2019 2:09:07 PM com.commander.server.controller.MainFormController Logger
INFORMACIÓN: [SERVER OUTPUT FILE] Escuchando TCP en puerto:13085
jun 09, 2019 2:12:32 PM com.commander.server.controller.MainFormController Logger
GRAVE: [SERVER MAIN] Escuchando TCP en puerto:55555
jun 09, 2019 8:22:22 PM com.commander.server.controller.MainFormController Logger
INFORMACIÓN: [SERVER OUTPUT FILE] Escuchando TCP en puerto:13085
jun 09, 2019 8:28:12 PM com.commander.server.controller.MainFormController Logger
INFORMACIÓN: [SERVER OUTPUT FILE] Escuchando TCP en puerto:13085
jun 09, 2019 8:29:48 PM com.commander.server.controller.MainFormController Logger
GRAVE: [SERVER MAIN] Escuchando TCP en puerto:55555
jun 09, 2019 8:34:25 PM com.commander.server.controller.MainFormController Logger
INFORMACIÓN: [SERVER OUTPUT FILE] Escuchando TCP en puerto:13085
jun 09, 2019 8:37:54 PM com.commander.server.controller.MainFormController Logger
GRAVE: [SERVER MAIN] Escuchando TCP en puerto:55555
jun 09, 2019 8:38:59 PM com.commander.server.controller.MainFormController Logger
GRAVE: [SERVER MAIN] Escuchando TCP en puerto:55555
jun 09, 2019 10:40:14 PM com.commander.server.controller.MainFormController Logger
GRAVE: [SERVER MAIN] Escuchando TCP en puerto:55555
