jun 11, 2019 8:54:46 PM com.commander.server.controller.MainFormController Logger
INFORMACIÓN: [SERVER OUTPUT FILE] Escuchando TCP en puerto:13085
jun 11, 2019 9:39:20 PM com.commander.server.controller.MainFormController Logger
GRAVE: [SERVER MAIN] Escuchando TCP en puerto:55555
jun 11, 2019 10:46:15 PM com.commander.server.controller.MainFormController Logger
GRAVE: [SERVER MAIN] Escuchando TCP en puerto:55555
