jun 14, 2019 12:39:51 AM com.commander.server.controller.MainFormController Logger
GRAVE: [SERVER MAIN] Escuchando TCP en puerto:55555
jun 14, 2019 12:54:51 AM com.commander.server.controller.MainFormController Logger
GRAVE: [SERVER MAIN] Escuchando TCP en puerto:55555
jun 14, 2019 6:32:13 PM com.commander.server.controller.MainFormController Logger
GRAVE: [SERVER MAIN] Escuchando TCP en puerto:55555
jun 14, 2019 6:40:22 PM com.commander.server.controller.MainFormController Logger
INFORMACIÓN: [SERVER OUTPUT FILE] Escuchando TCP en puerto:13085
jun 14, 2019 6:47:07 PM com.commander.server.controller.MainFormController Logger
INFORMACIÓN: [SERVER OUTPUT FILE] Escuchando TCP en puerto:13085
jun 14, 2019 6:53:44 PM com.commander.server.controller.MainFormController Logger
INFORMACIÓN: [SERVER OUTPUT FILE] Escuchando TCP en puerto:13085
jun 14, 2019 6:59:39 PM com.commander.server.controller.MainFormController Logger
INFORMACIÓN: [SERVER OUTPUT FILE] Escuchando TCP en puerto:13085
jun 14, 2019 7:01:33 PM com.commander.server.controller.MainFormController Logger
GRAVE: [SERVER MAIN] Escuchando TCP en puerto:55555
jun 14, 2019 7:05:16 PM com.commander.server.controller.MainFormController Logger
GRAVE: [SERVER MAIN] Escuchando TCP en puerto:55555
jun 14, 2019 10:47:02 PM com.commander.server.controller.MainFormController Logger
INFORMACIÓN: [SERVER OUTPUT FILE] Escuchando TCP en puerto:13085
jun 14, 2019 10:49:49 PM com.commander.server.controller.MainFormController Logger
INFORMACIÓN: [SERVER OUTPUT FILE] Escuchando TCP en puerto:13085
jun 14, 2019 10:52:14 PM com.commander.server.controller.MainFormController Logger
GRAVE: [SERVER MAIN] Escuchando TCP en puerto:55555
jun 14, 2019 10:53:13 PM com.commander.server.controller.MainFormController Logger
GRAVE: [SERVER MAIN] Escuchando TCP en puerto:55555
jun 14, 2019 10:59:55 PM com.commander.server.controller.MainFormController Logger
GRAVE: [SERVER MAIN] Escuchando TCP en puerto:55555
