jun 15, 2019 6:16:43 PM com.commander.server.controller.MainFormController Logger
INFORMACIÓN: [SERVER OUTPUT FILE] Escuchando TCP en puerto:13085
jun 15, 2019 6:36:37 PM com.commander.server.controller.MainFormController Logger
GRAVE: Waiting for clients to connect...
jun 15, 2019 6:37:05 PM com.commander.server.controller.MainFormController Logger
GRAVE: Waiting for clients to connect...
jun 15, 2019 6:38:36 PM com.commander.server.controller.MainFormController Logger
GRAVE: Waiting for clients to connect...
jun 15, 2019 6:39:47 PM com.commander.server.controller.MainFormController Logger
GRAVE: Waiting for clients to connect...
jun 15, 2019 6:40:39 PM com.commander.server.controller.MainFormController Logger
GRAVE: Waiting for clients to connect...
jun 15, 2019 6:41:05 PM com.commander.server.controller.MainFormController Logger
GRAVE: Waiting for clients to connect...
jun 15, 2019 6:41:25 PM com.commander.server.controller.MainFormController Logger
GRAVE: Waiting for clients to connect...
jun 15, 2019 6:41:48 PM com.commander.server.controller.MainFormController Logger
GRAVE: Waiting for clients to connect...
jun 15, 2019 6:42:09 PM com.commander.server.controller.MainFormController Logger
GRAVE: Waiting for clients to connect...
jun 15, 2019 6:42:37 PM com.commander.server.controller.MainFormController Logger
GRAVE: Waiting for clients to connect...
jun 15, 2019 6:43:00 PM com.commander.server.controller.MainFormController Logger
GRAVE: Waiting for clients to connect...
jun 15, 2019 6:43:38 PM com.commander.server.controller.MainFormController Logger
GRAVE: Waiting for clients to connect...
jun 15, 2019 6:43:59 PM com.commander.server.controller.MainFormController Logger
GRAVE: Waiting for clients to connect...
jun 15, 2019 6:44:20 PM com.commander.server.controller.MainFormController Logger
GRAVE: Waiting for clients to connect...
jun 15, 2019 6:44:59 PM com.commander.server.controller.MainFormController Logger
GRAVE: Waiting for clients to connect...
jun 15, 2019 6:45:29 PM com.commander.server.controller.MainFormController Logger
GRAVE: Waiting for clients to connect...
jun 15, 2019 6:45:54 PM com.commander.server.controller.MainFormController Logger
GRAVE: Waiting for clients to connect...
jun 15, 2019 6:46:21 PM com.commander.server.controller.MainFormController Logger
GRAVE: Waiting for clients to connect...
jun 15, 2019 6:46:43 PM com.commander.server.controller.MainFormController Logger
GRAVE: Waiting for clients to connect...
jun 15, 2019 6:47:08 PM com.commander.server.controller.MainFormController Logger
GRAVE: Waiting for clients to connect...
jun 15, 2019 6:47:49 PM com.commander.server.controller.MainFormController Logger
GRAVE: Waiting for clients to connect...
jun 15, 2019 6:48:11 PM com.commander.server.controller.MainFormController Logger
GRAVE: Waiting for clients to connect...
jun 15, 2019 6:48:30 PM com.commander.server.controller.MainFormController Logger
GRAVE: Waiting for clients to connect...
jun 15, 2019 6:48:52 PM com.commander.server.controller.MainFormController Logger
GRAVE: Waiting for clients to connect...
jun 15, 2019 6:49:12 PM com.commander.server.controller.MainFormController Logger
GRAVE: Waiting for clients to connect...
jun 15, 2019 6:49:43 PM com.commander.server.controller.MainFormController Logger
GRAVE: Waiting for clients to connect...
jun 15, 2019 6:50:06 PM com.commander.server.controller.MainFormController Logger
GRAVE: Waiting for clients to connect...
jun 15, 2019 6:50:28 PM com.commander.server.controller.MainFormController Logger
GRAVE: Waiting for clients to connect...
jun 15, 2019 6:50:52 PM com.commander.server.controller.MainFormController Logger
GRAVE: Waiting for clients to connect...
jun 15, 2019 6:51:25 PM com.commander.server.controller.MainFormController Logger
GRAVE: Waiting for clients to connect...
jun 15, 2019 6:51:47 PM com.commander.server.controller.MainFormController Logger
GRAVE: Waiting for clients to connect...
jun 15, 2019 6:52:07 PM com.commander.server.controller.MainFormController Logger
GRAVE: Waiting for clients to connect...
jun 15, 2019 6:52:32 PM com.commander.server.controller.MainFormController Logger
GRAVE: Waiting for clients to connect...
jun 15, 2019 6:52:58 PM com.commander.server.controller.MainFormController Logger
GRAVE: Waiting for clients to connect...
jun 15, 2019 6:53:27 PM com.commander.server.controller.MainFormController Logger
GRAVE: Waiting for clients to connect...
jun 15, 2019 6:53:52 PM com.commander.server.controller.MainFormController Logger
GRAVE: Waiting for clients to connect...
jun 15, 2019 6:54:15 PM com.commander.server.controller.MainFormController Logger
GRAVE: Waiting for clients to connect...
jun 15, 2019 6:54:44 PM com.commander.server.controller.MainFormController Logger
GRAVE: Waiting for clients to connect...
jun 15, 2019 6:55:10 PM com.commander.server.controller.MainFormController Logger
GRAVE: Waiting for clients to connect...
jun 15, 2019 6:55:31 PM com.commander.server.controller.MainFormController Logger
GRAVE: Waiting for clients to connect...
jun 15, 2019 6:55:54 PM com.commander.server.controller.MainFormController Logger
GRAVE: Waiting for clients to connect...
jun 15, 2019 6:56:12 PM com.commander.server.controller.MainFormController Logger
GRAVE: Waiting for clients to connect...
jun 15, 2019 6:56:32 PM com.commander.server.controller.MainFormController Logger
GRAVE: Waiting for clients to connect...
jun 15, 2019 6:56:51 PM com.commander.server.controller.MainFormController Logger
GRAVE: Waiting for clients to connect...
jun 15, 2019 6:57:13 PM com.commander.server.controller.MainFormController Logger
GRAVE: Waiting for clients to connect...
jun 15, 2019 7:15:45 PM com.commander.server.controller.MainFormController Logger
INFORMACIÓN: [SERVER OUTPUT FILE] Escuchando TCP en puerto:13085
jun 15, 2019 7:32:09 PM com.commander.server.controller.MainFormController Logger
INFORMACIÓN: [SERVER] Escuchando TCP en puerto:55555
jun 15, 2019 7:37:58 PM com.commander.server.controller.MainFormController Logger
INFORMACIÓN: [SERVER] Escuchando TCP en puerto:55555
jun 15, 2019 7:47:58 PM com.commander.server.controller.MainFormController Logger
INFORMACIÓN: [SERVER] Escuchando TCP en puerto:55555
jun 15, 2019 7:51:29 PM com.commander.server.controller.MainFormController Logger
INFORMACIÓN: [SERVER OUTPUT FILE] Escuchando TCP en puerto:13085
jun 15, 2019 7:57:58 PM com.commander.server.controller.MainFormController Logger
INFORMACIÓN: [SERVER OUTPUT FILE] Escuchando TCP en puerto:13085
jun 15, 2019 8:35:03 PM com.commander.server.controller.MainFormController Logger
INFORMACIÓN: [SERVER OUTPUT FILE] Escuchando TCP en puerto:13085
jun 15, 2019 11:04:42 PM com.commander.server.controller.MainFormController Logger
INFORMACIÓN: [SERVER OUTPUT FILE] Escuchando TCP en puerto:13085
jun 15, 2019 11:07:02 PM com.commander.server.controller.MainFormController Logger
INFORMACIÓN: [SERVER] Escuchando TCP en puerto:55555
jun 15, 2019 11:19:30 PM com.commander.server.controller.MainFormController Logger
INFORMACIÓN: [SERVER] Escuchando TCP en puerto:55555
jun 15, 2019 11:23:52 PM com.commander.server.controller.MainFormController Logger
INFORMACIÓN: [SERVER] Escuchando TCP en puerto:55555
jun 15, 2019 11:27:27 PM com.commander.server.controller.MainFormController Logger
INFORMACIÓN: [SERVER] Escuchando TCP en puerto:55555
jun 15, 2019 11:36:15 PM com.commander.server.controller.MainFormController Logger
INFORMACIÓN: [SERVER] Escuchando TCP en puerto:55555
jun 15, 2019 11:55:00 PM com.commander.server.controller.MainFormController Logger
INFORMACIÓN: [SERVER] Escuchando TCP en puerto:55555
