jun 16, 2019 12:03:11 AM com.commander.server.controller.MainFormController Logger
INFORMACIÓN: [SERVER] Escuchando TCP en puerto:55555
jun 16, 2019 12:08:41 AM com.commander.server.controller.MainFormController Logger
INFORMACIÓN: [SERVER OUTPUT FILE] Escuchando TCP en puerto:13085
jun 16, 2019 12:44:07 AM com.commander.server.controller.MainFormController Logger
INFORMACIÓN: [SERVER OUTPUT FILE] Escuchando TCP en puerto:13085
jun 16, 2019 12:25:48 PM com.commander.server.controller.MainFormController Logger
INFORMACIÓN: [SERVER OUTPUT FILE] Escuchando TCP en puerto:13085
jun 16, 2019 12:34:44 PM com.commander.server.controller.MainFormController Logger
INFORMACIÓN: [SERVER] Escuchando TCP en puerto:55555
jun 16, 2019 12:36:08 PM com.commander.server.controller.MainFormController Logger
INFORMACIÓN: [SERVER] Escuchando TCP en puerto:55555
jun 16, 2019 12:38:03 PM com.commander.server.controller.MainFormController Logger
INFORMACIÓN: [SERVER] Escuchando TCP en puerto:55555
jun 16, 2019 12:41:46 PM com.commander.server.controller.MainFormController Logger
INFORMACIÓN: [SERVER OUTPUT FILE] Escuchando TCP en puerto:13085
jun 16, 2019 12:42:58 PM com.commander.server.controller.MainFormController Logger
INFORMACIÓN: [SERVER OUTPUT FILE] Escuchando TCP en puerto:13085
jun 16, 2019 12:45:51 PM com.commander.server.controller.MainFormController Logger
INFORMACIÓN: [SERVER] Escuchando TCP en puerto:55555
jun 16, 2019 12:51:50 PM com.commander.server.controller.MainFormController Logger
INFORMACIÓN: [SERVER] Escuchando TCP en puerto:55555
jun 16, 2019 12:53:48 PM com.commander.server.controller.MainFormController Logger
INFORMACIÓN: [SERVER OUTPUT FILE] Escuchando TCP en puerto:13085
jun 16, 2019 12:56:29 PM com.commander.server.controller.MainFormController Logger
INFORMACIÓN: [SERVER OUTPUT FILE] Escuchando TCP en puerto:13085
jun 16, 2019 12:59:41 PM com.commander.server.controller.MainFormController Logger
INFORMACIÓN: [SERVER] Escuchando TCP en puerto:55555
jun 16, 2019 1:04:26 PM com.commander.server.controller.MainFormController Logger
INFORMACIÓN: [SERVER] Escuchando TCP en puerto:55555
jun 16, 2019 1:06:56 PM com.commander.server.controller.MainFormController Logger
INFORMACIÓN: [SERVER] Escuchando TCP en puerto:55555
jun 16, 2019 1:09:52 PM com.commander.server.controller.MainFormController Logger
INFORMACIÓN: [SERVER] Escuchando TCP en puerto:55555
jun 16, 2019 1:11:57 PM com.commander.server.controller.MainFormController Logger
INFORMACIÓN: [SERVER] Escuchando TCP en puerto:55555
jun 16, 2019 1:16:09 PM com.commander.server.controller.MainFormController Logger
INFORMACIÓN: [SERVER OUTPUT FILE] Escuchando TCP en puerto:13085
jun 16, 2019 1:27:03 PM com.commander.server.controller.MainFormController Logger
INFORMACIÓN: [SERVER] Escuchando TCP en puerto:55555
jun 16, 2019 1:36:32 PM com.commander.server.controller.MainFormController Logger
INFORMACIÓN: [SERVER] Escuchando TCP en puerto:55555
jun 16, 2019 1:38:40 PM com.commander.server.controller.MainFormController Logger
INFORMACIÓN: [SERVER] Escuchando TCP en puerto:55555
jun 16, 2019 1:40:28 PM com.commander.server.controller.MainFormController Logger
INFORMACIÓN: [SERVER] Escuchando TCP en puerto:55555
jun 16, 2019 1:42:46 PM com.commander.server.controller.MainFormController Logger
INFORMACIÓN: [SERVER] Escuchando TCP en puerto:55555
jun 16, 2019 1:46:05 PM com.commander.server.controller.MainFormController Logger
INFORMACIÓN: [SERVER] Escuchando TCP en puerto:55555
jun 16, 2019 1:49:34 PM com.commander.server.controller.MainFormController Logger
INFORMACIÓN: [SERVER] Escuchando TCP en puerto:55555
jun 16, 2019 1:55:29 PM com.commander.server.controller.MainFormController Logger
INFORMACIÓN: [SERVER] Escuchando TCP en puerto:55555
jun 16, 2019 1:58:53 PM com.commander.server.controller.MainFormController Logger
INFORMACIÓN: [SERVER OUTPUT FILE] Escuchando TCP en puerto:13085
jun 16, 2019 2:37:57 PM com.commander.server.controller.MainFormController Logger
INFORMACIÓN: [SERVER] Escuchando TCP en puerto:55555
jun 16, 2019 2:41:22 PM com.commander.server.controller.MainFormController Logger
INFORMACIÓN: [SERVER] Escuchando TCP en puerto:55555
jun 16, 2019 2:49:16 PM com.commander.server.controller.MainFormController Logger
INFORMACIÓN: [SERVER] Escuchando TCP en puerto:55555
jun 16, 2019 3:19:32 PM com.commander.server.controller.MainFormController Logger
INFORMACIÓN: [SERVER] Escuchando TCP en puerto:55555
jun 16, 2019 3:23:36 PM com.commander.server.controller.MainFormController Logger
INFORMACIÓN: [SERVER] Escuchando TCP en puerto:55555
jun 16, 2019 5:42:43 PM com.commander.server.controller.MainFormController Logger
INFORMACIÓN: [SERVER] Escuchando TCP en puerto:55555
jun 16, 2019 8:05:31 PM com.commander.server.controller.MainFormController Logger
INFORMACIÓN: [SERVER] Escuchando TCP en puerto:55555
jun 16, 2019 8:08:45 PM com.commander.server.controller.MainFormController Logger
INFORMACIÓN: [SERVER] Escuchando TCP en puerto:55555
jun 16, 2019 8:10:03 PM com.commander.server.controller.MainFormController Logger
INFORMACIÓN: [SERVER OUTPUT FILE] Escuchando TCP en puerto:13085
jun 16, 2019 10:49:22 PM com.commander.server.controller.MainFormController Logger
INFORMACIÓN: [SERVER OUTPUT FILE] Escuchando TCP en puerto:13085
jun 16, 2019 10:52:16 PM com.commander.server.controller.MainFormController Logger
INFORMACIÓN: [SERVER INPUT FILES] Escuchando en TCP en puerto 55556
