jun 08, 2019 2:43:57 AM com.commander.server.controller.MainFormController Logger
GRAVE: [SERVER MAIN] Escuchando TCP en puerto:55555
jun 08, 2019 2:45:23 AM com.commander.server.controller.MainFormController Logger
GRAVE: [SERVER MAIN] Escuchando TCP en puerto:55555
jun 08, 2019 2:48:19 AM com.commander.server.controller.MainFormController Logger
GRAVE: [SERVER MAIN] Escuchando TCP en puerto:55555
jun 08, 2019 3:29:27 AM com.commander.server.controller.MainFormController Logger
GRAVE: [SERVER MAIN] Escuchando TCP en puerto:55555
jun 08, 2019 3:48:51 AM com.commander.server.controller.MainFormController Logger
INFORMACIÓN: [SERVER OUTPUT FILE] Escuchando TCP en puerto:13085
jun 08, 2019 4:01:42 AM com.commander.server.controller.MainFormController Logger
INFORMACIÓN: [SERVER OUTPUT FILE] Escuchando TCP en puerto:13085
jun 08, 2019 4:03:03 AM com.commander.server.controller.MainFormController Logger
INFORMACIÓN: [SERVER OUTPUT FILE] Escuchando TCP en puerto:13085
jun 08, 2019 4:32:37 AM com.commander.server.controller.MainFormController Logger
INFORMACIÓN: [SERVER OUTPUT FILE] Escuchando TCP en puerto:13085
jun 08, 2019 1:21:04 PM com.commander.server.controller.MainFormController Logger
GRAVE: [SERVER MAIN] Escuchando TCP en puerto:55555
jun 08, 2019 1:44:15 PM com.commander.server.controller.MainFormController Logger
GRAVE: [SERVER MAIN] Escuchando TCP en puerto:55555
jun 08, 2019 2:06:24 PM com.commander.server.controller.MainFormController Logger
GRAVE: Waiting for clients to connect...
jun 08, 2019 4:51:28 PM com.commander.server.controller.MainFormController Logger
INFORMACIÓN: [SERVER OUTPUT FILE] Escuchando TCP en puerto:13085
jun 08, 2019 4:57:33 PM com.commander.server.controller.MainFormController Logger
GRAVE: [SERVER MAIN] Escuchando TCP en puerto:55555
