jun 01, 2019 5:25:52 PM com.commander.server.controller.MainFormController Logger
GRAVE: java.lang.NullPointerException
	at com.commander.server.controller.MenuFormController$4.received(MenuFormController.java:701)
	at com.esotericsoftware.kryonet.Connection.notifyReceived(Connection.java:246)
	at com.esotericsoftware.kryonet.Client.update(Client.java:288)
	at com.esotericsoftware.kryonet.Client.run(Client.java:333)
	at java.lang.Thread.run(Thread.java:748)

jun 01, 2019 6:39:32 PM com.commander.server.controller.MainFormController Logger
GRAVE: Waiting for clients to connect...
jun 01, 2019 6:40:11 PM com.commander.server.controller.MainFormController Logger
GRAVE: Waiting for clients to connect...
jun 01, 2019 6:42:20 PM com.commander.server.controller.MainFormController Logger
GRAVE: Waiting for clients to connect...
jun 01, 2019 6:42:36 PM com.commander.server.controller.MainFormController Logger
GRAVE: Waiting for clients to connect...
jun 01, 2019 6:42:56 PM com.commander.server.controller.MainFormController Logger
GRAVE: Waiting for clients to connect...
